[gd_scene load_steps=2 format=2]

[ext_resource path="res://sprites/background_day.png" type="Texture" id=1]

[node name="background" type="CanvasLayer"]

layer = -1
offset = Vector2( 0, 0 )
rotation = 0.0
scale = Vector2( 1, 1 )
transform = Transform2D( 1, 0, 0, 1, 0, 0 )

[node name="Sprite" type="Sprite" parent="." index="0"]

texture = ExtResource( 1 )
centered = false
_sections_unfolded = [ "Animation", "Material", "Offset", "Region", "Transform", "Visibility" ]


